{
  "_class": "group",
  "do_objectID": "8E50E896-9B59-4EF9-953B-F9177F60E3BA",
  "exportOptions": {
    "_class": "exportOptions",
    "exportFormats": [
    ],
    "includedLayerIds": [
    ],
    "layerOptions": 0,
    "shouldTrim": false
  },
  "frame": {
    "_class": "rect",
    "constrainProportions": false,
    "height": 32,
    "width": 674,
    "x": 627,
    "y": 385
  },
  "hasClickThrough": false,
  "isFlippedHorizontal": false,
  "isFlippedVertical": false,
  "isLocked": false,
  "isVisible": true,
  "layerListExpandedType": 1,
  "layers": [
    {
      "class": "shapeGroup",
      "id": "626BAE4A-9207-4787-A19C-7E2B290DE445"
    },
    {
      "class": "shapeGroup",
      "id": "69F858A7-DF48-4985-A18D-1299AB8E481F"
    },
    {
      "class": "shapeGroup",
      "id": "609C423B-5A87-4A25-8751-74D6E8664E18"
    },
    {
      "class": "group",
      "id": "F0BC8C0B-7FB8-4231-9865-B7B986327289"
    },
    {
      "class": "text",
      "id": "BA1109B4-EBFD-428A-B5E1-F7A583E2233B"
    }
  ],
  "name": "epic copy 4",
  "nameIsFixed": true,
  "resizingConstraint": 63,
  "resizingType": 0,
  "rotation": 0,
  "shouldBreakMaskChain": false,
  "style": {
    "_class": "style",
    "endDecorationType": 0,
    "miterLimit": 10,
    "startDecorationType": 0
  }
}